…
The datasets has 1384617 rows(which means there are 1384617 orders), and
15 variables. The key variables is order_dow, order_hour, product name,
products’ aisle and department.

## EDA

``` r
instacart%>%
  count(aisle, name = "n_aisle") %>%
  arrange(desc(n_aisle)) # count the number of each of the aisle and arrange them in a decreasing order.
```

    ## # A tibble: 134 × 2
    ##    aisle                         n_aisle
    ##    <chr>                           <int>
    ##  1 fresh vegetables               150609
    ##  2 fresh fruits                   150473
    ##  3 packaged vegetables fruits      78493
    ##  4 yogurt                          55240
    ##  5 packaged cheese                 41699
    ##  6 water seltzer sparkling water   36617
    ##  7 milk                            32644
    ##  8 chips pretzels                  31269
    ##  9 soy lactosefree                 26240
    ## 10 bread                           23635
    ## # … with 124 more rows
…
## Tidy and Wrangle the data

``` r
accelerometer %>%
  janitor::clean_names() %>%
  pivot_longer(activity_1:activity_1440,
               names_to = "minute_of_day",
               names_prefix = "activity.",
               values_to = "activity_count") %>% # convert the length and width to make the dataframe looks better.
  mutate(
    weekday_VS_weekend = ifelse(day %in% c("Saturday","Sunday"), "Weekend", "weekday")
  ) # seperate the  weekday and weekend
```

    ## # A tibble: 50,400 × 6
    ##     week day_id day    minute_of_day activity_count weekday_VS_weekend
    ##    <int>  <int> <chr>  <chr>                  <dbl> <chr>             
    ##  1     1      1 Friday 1                       88.4 weekday           
    ##  2     1      1 Friday 2                       82.2 weekday           
    ##  3     1      1 Friday 3                       64.4 weekday           
    ##  4     1      1 Friday 4                       70.0 weekday           
    ##  5     1      1 Friday 5                       75.0 weekday           
    ##  6     1      1 Friday 6                       66.3 weekday           
    ##  7     1      1 Friday 7                       53.8 weekday           
    ##  8     1      1 Friday 8                       47.8 weekday           
    ##  9     1      1 Friday 9                       55.5 weekday           
    ## 10     1      1 Friday 10                      43.0 weekday           
    ## # … with 50,390 more rows
…
    ## `summarise()` has grouped output by 'week'. You can override using the
    ## `.groups` argument.

    ## # A tibble: 35 × 3
    ## # Groups:   week [5]
    ##     week day       total_activity_day
    ##    <int> <chr>                  <dbl>
    ##  1     4 Saturday               1440 
    ##  2     5 Saturday               1440 
    ##  3     1 Monday                78828.
    ##  4     5 Sunday               138421 
    ##  5     4 Friday               154049 
    ##  6     4 Sunday               260617 
    ##  7     2 Monday               295431 
    ##  8     1 Tuesday              307094.
    ##  9     4 Tuesday              319568 
    ## 10     1 Wednesday            340115.
    ## # … with 25 more rows
…
